<?xml version="1.0" encoding="UTF-8" standalone="no"?>
<!DOCTYPE svg PUBLIC "-//W3C//DTD SVG 1.1//EN"
"http://www.w3.org/Graphics/SVG/1.1/DTD/svg11.dtd">


<!-- Page 1 -->
<svg x="0" y="0" width="909" height="1286" viewBox="0 0 909 1286" version="1.1" xmlns="http://www.w3.org/2000/svg" xmlns:xlink="http://www.w3.org/1999/xlink"
style="display: block;margin-left: auto;margin-right: auto;">
<defs>

<style type="text/css"><![CDATA[

.g0_1{
fill: #FBB040;
}
.g1_1{
fill: #231F20;
}
.g2_1{
fill: #030303;
}
.g3_1{
fill: #9FC03F;
}
.g4_1{
fill: #DFBF3A;
}
.g5_1{
fill: #E8D14A;
}
.g6_1{
fill: #FFFFFF;
}

]]></style>

</defs>
<path d="M0,0
L0,1286
L909,1286
L909,0 Z " 
fill="#FFFFFF" stroke="none" />
<path d="M837.5,634.4c0,211.1,-171.1,382.2,-382.2,382.2C244.2,1016.6,73.1,845.5,73.1,634.4C73.1,423.3,244.2,252.2,455.3,252.2c211.1,0,382.2,171.1,382.2,382.2Z" class="g0_1" />
<path d="M295.9,886.6c0,-1.7,-.1,-3.5,-.5,-5.2c-.3,-1.7,-.8,-3.1,-1.5,-4.3c-.8,-1.2,-1.8,-2.2,-3.1,-2.9c-1.3,-.7,-2.9,-1,-4.8,-1c-1.1,0,-2.2,.2,-3.2,.6c-1,.3,-2,.9,-3.1,1.5c-.9,.6,-1.8,1.3,-2.7,2.1c-.9,.9,-1.7,1.6,-2.4,2.3l-6.3,28.7c.1,.6,.4,1.3,.9,2.1c.5,.8,1.1,1.4,1.8,2c.9,.8,2,1.3,3.1,1.7c1.1,.4,2.4,.6,3.7,.6c2.6,-.1,5,-.8,7.2,-2.3c2.2,-1.5,4.1,-3.6,5.7,-6.1c1.8,-2.8,3.1,-5.9,4,-9.3c.8,-3.5,1.2,-7,1.2,-10.5m10,-.3c0,4.3,-.8,8.4,-2.3,12.3c-1.5,3.9,-3.5,7.3,-6.1,10.2c-2.6,2.9,-5.5,5.2,-8.8,6.8c-3.2,1.7,-6.7,2.6,-10.4,2.6c-2.8,0,-5.2,-.2,-7.3,-.7c-2.1,-.4,-3.9,-1.1,-5.4,-1.9c-1.5,-.8,-2.8,-1.7,-3.8,-2.8c-1,-1,-1.9,-2.2,-2.7,-3.5l12.2,-54.8c.1,-.7,.2,-1.3,.4,-1.9c.1,-.5,.1,-1,.1,-1.6c0,-1.1,-.2,-2,-.6,-2.7c-.4,-.6,-.9,-1.1,-1.6,-1.4c-.7,-.3,-1.6,-.5,-2.6,-.6c-1,0,-2.1,-.2,-3.1,-.3l.6,-2.9l17.9,-1.2l.5,.7l-7.2,32.2h.2c2.9,-2.6,5.5,-4.4,7.7,-5.4c2.2,-1,4.3,-1.5,6.4,-1.5c4.9,0,8.8,1.6,11.6,4.9c2.8,3.4,4.2,7.8,4.3,13.5Z" class="g1_1" />
<path d="M352.6,884.7c0,-4.5,-.8,-8,-2.5,-10.3c-1.6,-2.2,-4,-3.4,-7,-3.4c-2.7,.1,-5.2,.9,-7.6,2.6c-2.3,1.6,-4.4,4.3,-6.1,8c-1.3,2.8,-2.2,5.9,-2.8,9.4c-.6,3.4,-.9,6.6,-.9,9.5c0,4.6,.9,8.1,2.5,10.5c1.6,2.3,4,3.5,7.2,3.5c2.9,0,5.4,-1,7.6,-2.8c2.2,-1.8,4,-4.1,5.4,-6.9c1.4,-2.7,2.4,-5.8,3.1,-9.3c.8,-3.5,1.1,-7.1,1.1,-10.8m9.9,1.8c0,3.8,-.6,7.6,-1.9,11.5c-1.3,3.8,-3.1,7.1,-5.6,10c-2.4,3,-5.4,5.4,-8.9,7.2c-3.5,1.8,-7.5,2.7,-12.1,2.7c-5.4,0,-9.7,-1.7,-13.1,-5.1c-3.3,-3.4,-5,-8.1,-5,-13.9c-.1,-4.3,.6,-8.3,2,-12c1.4,-3.7,3.3,-7,5.7,-9.8c2.4,-2.8,5.4,-5.1,8.9,-6.8c3.6,-1.8,7.4,-2.7,11.6,-2.7c5.7,0,10.2,1.7,13.4,5.2c3.3,3.5,4.9,8,5,13.7Z" class="g1_1" />
<path d="M383.8,917.2c-3.1,0,-5.3,-.6,-6.7,-1.8c-1.5,-1.2,-2.2,-3,-2.2,-5.3c0,-.8,.1,-1.5,.2,-2.1c0,-.7,.2,-1.4,.3,-2.3l7.4,-32.3l-8.6,.1l1,-4.4L384,869l3.3,-14.2H396L392.8,869l13.4,-.1l-1,4.4l-13.3,.1L385.8,900c-.3,1.2,-.5,2.4,-.7,3.6c-.2,1.1,-.3,2.1,-.3,2.9c0,1.8,.5,3.1,1.4,3.9c.8,.8,2.5,1.2,4.8,1.2c.8,0,2,-.1,3.5,-.3c1.5,-.3,2.7,-.5,3.5,-.9l-.8,3.6c-2.2,.9,-4.4,1.6,-6.4,2.3c-1.9,.6,-4.3,.9,-7,.9Z" class="g1_1" />
<path d="M459.7,910.9c-1.2,.2,-2.1,.3,-2.7,.3c-1.8,0,-3.1,-.3,-3.9,-1c-.8,-.6,-1.3,-1.9,-1.3,-3.7c0,-.7,.2,-1.8,.4,-3.1c.3,-1.4,.6,-2.5,.9,-3.6L457,884.3c.4,-1.5,.7,-2.9,.9,-4.4c.1,-1.5,.2,-2.5,.2,-3.1c0,-2.9,-.9,-5.3,-2.6,-7.1c-1.8,-1.7,-4.2,-2.6,-7.2,-2.6c-3.3,0,-6.2,.7,-8.8,2.1c-2.6,1.4,-5.6,3.5,-9.1,6.3h-.3c-.1,-2.4,-.7,-4.3,-1.8,-5.7c-1.1,-1.4,-2.9,-2.1,-5.5,-2c-.4,0,-.8,0,-1.3,0c-.1,.8,-.3,1.5,-.6,2.2c.3,1.7,.2,3.3,-.4,4.9c0,.7,0,1.5,-.2,2.3c0,.2,0,.4,0,.6c0,.9,-.1,2.1,-.4,3.5c-.3,1.5,-.5,2.6,-.7,3.4l-7.1,31.4l9,-.1l8.1,-35.5c2.2,-2.5,4.4,-4.4,6.9,-5.7c2.4,-1.3,4.6,-1.9,6.5,-1.9c2,0,3.5,.6,4.6,1.8c1,1.3,1.5,3,1.5,5.2c0,.6,-.1,1.5,-.3,2.7c-.2,1.1,-.4,2.4,-.8,3.7l-4.7,18.1c-.3,1.2,-.5,2.2,-.6,3c-.1,.9,-.2,1.7,-.2,2.4c0,2,.7,3.6,2,4.9c1.3,1.4,3.2,2,5.8,2c1.7,0,3.3,-.3,4.9,-.8c1.6,-.5,3.9,-1.4,6.8,-2.6l.7,-3.1c-.6,.2,-1.5,.5,-2.6,.7Z" class="g1_1" />
<path d="M508.8,878.6c0,-1,-.1,-2,-.3,-3c-.2,-1,-.7,-1.9,-1.4,-2.7c-.7,-.8,-1.6,-1.4,-2.7,-1.9c-1.1,-.5,-2.6,-.7,-4.3,-.7c-2.3,0,-4.6,.8,-6.8,2.3c-2.2,1.6,-4.2,3.7,-6,6.3c-1.6,2.5,-3,5.4,-4,8.9c-1.1,3.5,-1.6,7,-1.6,10.6c0,2,.2,3.7,.4,5.2c.2,1.6,.7,2.9,1.3,4.2c.6,1.2,1.5,2.2,2.7,2.8c1.1,.7,2.6,1,4.4,1c1.8,0,3.7,-.5,5.6,-1.5c2,-1,4.2,-2.8,6.7,-5.4ZM502,909.2h-.3c-.7,.6,-1.6,1.4,-2.5,2.3c-1,.8,-2.2,1.7,-3.5,2.5c-1.2,.8,-2.6,1.5,-4.1,2.1c-1.4,.6,-3,.9,-4.8,1c-4.6,0,-8.3,-1.7,-11,-5c-2.7,-3.4,-4,-7.9,-4,-13.7c-.1,-4,.7,-7.9,2.1,-11.7c1.5,-3.8,3.5,-7.2,6.1,-10.2c2.5,-2.9,5.4,-5.2,8.8,-7c3.4,-1.7,6.9,-2.6,10.5,-2.7c2.3,0,4.5,.3,6.6,.9c2.1,.6,3.7,1.3,4.9,2.1l8.8,-2.3l.6,.7L513,899.4c-.2,1,-.5,2.2,-.8,3.7c-.2,1.4,-.4,2.5,-.4,3.2c.1,1.8,.4,3,1.2,3.7c.8,.6,2.1,.9,3.9,.9c.7,0,1.5,-.1,2.7,-.3c1.1,-.2,2,-.4,2.6,-.6l-.7,3.1c-2.9,1.2,-5.1,2,-6.5,2.5c-1.4,.5,-3.2,.8,-5.2,.8c-2.3,0,-4.2,-.6,-5.5,-2c-1.4,-1.3,-2.1,-3.1,-2.3,-5.2Z" class="g1_1" />
<path d="M581.3,910.3c-1.1,.2,-2,.3,-2.6,.3c-1.9,0,-3.2,-.3,-4,-1c-.8,-.6,-1.2,-1.9,-1.2,-3.7c0,-.7,.1,-1.8,.4,-3.1c.2,-1.4,.5,-2.5,.8,-3.6l4,-15.5c.4,-1.5,.6,-2.9,.8,-4.4c.2,-1.5,.3,-2.5,.3,-3.1c-.1,-2.9,-.9,-5.3,-2.7,-7.1c-1.7,-1.7,-4.1,-2.6,-7.2,-2.6c-3.3,0,-6.2,.7,-8.8,2.1c-2.5,1.4,-5.6,3.5,-9.1,6.3l-.3,.1c0,-2.5,-.6,-4.4,-1.7,-5.8c-1.2,-1.4,-3,-2.1,-5.5,-2c-.5,0,-.9,0,-1.4,0c0,1.3,-.3,2.5,-.8,3.6c.1,1.3,-.1,2.6,-.6,3.9c0,.1,0,.3,0,.5c.2,.5,.3,1.2,.3,2c0,.9,-.2,2.1,-.5,3.5c-.3,1.5,-.5,2.6,-.6,3.4l-7.1,31.4l9,-.1l8.1,-35.5c2.1,-2.5,4.4,-4.4,6.8,-5.7c2.4,-1.3,4.6,-1.9,6.6,-1.9c2,0,3.5,.6,4.5,1.8c1,1.3,1.6,3,1.6,5.2c0,.6,-.1,1.5,-.3,2.7c-.2,1.1,-.5,2.4,-.9,3.7l-4.6,18.1c-.3,1.2,-.5,2.2,-.7,3c-.1,.9,-.1,1.7,-.1,2.4c0,2,.6,3.6,1.9,4.9c1.3,1.4,3.3,2,5.9,2c1.6,0,3.2,-.3,4.8,-.8c1.7,-.5,3.9,-1.4,6.8,-2.6l.7,-3.1c-.6,.2,-1.5,.5,-2.6,.7Z" class="g1_1" />
<path d="M630.5,878c0,-1,-.1,-2,-.4,-3c-.2,-1,-.7,-1.9,-1.4,-2.7c-.6,-.8,-1.5,-1.4,-2.7,-1.9c-1.1,-.5,-2.5,-.7,-4.2,-.7c-2.4,0,-4.7,.8,-6.9,2.3c-2.2,1.6,-4.2,3.7,-5.9,6.3c-1.7,2.5,-3.1,5.4,-4.1,8.9c-1,3.5,-1.6,7,-1.5,10.6c0,2,.1,3.7,.3,5.2c.3,1.6,.7,2.9,1.3,4.2c.7,1.2,1.6,2.2,2.7,2.8c1.2,.7,2.6,1,4.4,1c1.8,0,3.7,-.5,5.7,-1.5c1.9,-1,4.2,-2.8,6.6,-5.4Zm-6.8,30.6h-.4c-.7,.6,-1.5,1.4,-2.5,2.3c-1,.9,-2.1,1.7,-3.4,2.5c-1.3,.8,-2.6,1.5,-4.1,2.1c-1.5,.6,-3.1,1,-4.8,1c-4.7,0,-8.4,-1.7,-11,-5c-2.7,-3.4,-4.1,-7.9,-4.1,-13.7c0,-4,.7,-7.9,2.2,-11.7c1.4,-3.8,3.5,-7.2,6.1,-10.2c2.4,-2.9,5.3,-5.2,8.8,-7c3.4,-1.7,6.9,-2.6,10.5,-2.7c2.3,0,4.4,.3,6.5,.9c2.1,.6,3.7,1.3,4.9,2.1l8.9,-2.3l.6,.7l-7.2,31.2c-.3,1,-.6,2.3,-.8,3.7c-.3,1.4,-.4,2.5,-.4,3.2c0,1.8,.4,3,1.2,3.7c.7,.6,2,.9,3.9,.9c.6,0,1.5,-.1,2.6,-.3c1.1,-.2,2,-.4,2.6,-.6l-.7,3.1c-2.9,1.2,-5.1,2,-6.5,2.5c-1.4,.5,-3.1,.8,-5.2,.8c-2.3,0,-4.1,-.6,-5.5,-2c-1.3,-1.3,-2.1,-3.1,-2.2,-5.2Z" class="g1_1" />
<path d="M605.5,453.7L456.2,452.6H456L306.7,451.5c-19.3,-.2,-35.2,16.3,-35.3,36.8L269.2,775c-.1,20.5,15.5,37.2,34.8,37.3l149.3,1.1h.2l149.3,1.2c19.3,.1,35.2,-16.4,35.3,-36.9l2.2,-286.6c.1,-20.5,-15.5,-37.2,-34.8,-37.4Z" class="g2_1" />
<path d="M403.5,547.8c-.1,15.5,-12.8,28,-28.3,27.9c-15.5,-.2,-27.9,-12.8,-27.8,-28.3c.1,-15.5,12.8,-28,28.3,-27.9c15.5,.1,28,12.8,27.8,28.3Z" class="g2_1" />
<path d="M293.9,712.1l-91,-32.7l.5,-67.9l91.5,-31.3Z" class="g2_1" />
<path d="M162.4,646.7C162.3,658,153.1,667,141.9,667c-11.3,-.1,-20.3,-9.3,-20.3,-20.6c.1,-11.2,9.3,-20.3,20.6,-20.2c11.2,.1,20.3,9.3,20.2,20.5Z" class="g2_1" />
<path d="M221.6,652l-72,-.6l.1,-9.6l71.9,.6Z" class="g2_1" />
<path d="M477.6,326.9c.1,-11.2,-9,-20.4,-20.3,-20.5c-.1,0,-.3,0,-.5,0c-11,.2,-19.9,9.1,-20,20.2c-.1,9.6,6.5,17.7,15.4,19.9l-.4,59.8l9.6,.1l.4,-59.8c9,-2.1,15.7,-10.1,15.8,-19.7Z" class="g2_1" />
<path d="M477.5,397.4l-19.9,-.1h-.2l-19.9,-.2c-17.6,-.1,-32.1,14.1,-32.2,31.8l-.2,29.8c-.1,17.7,14.1,32.1,31.7,32.2l19.9,.2h.2l19.9,.1c17.7,.2,32.1,-14,32.2,-31.7l.2,-29.8c.2,-17.7,-14,-32.1,-31.7,-32.3Z" class="g2_1" />
<path d="M514.2,549.5c-.1,15.5,12.4,28.1,27.9,28.3c15.5,.1,28.2,-12.4,28.3,-27.9c.1,-15.5,-12.4,-28.2,-27.9,-28.3C527,521.4,514.4,534,514.2,549.5Z" class="g2_1" />
<path d="M613.3,714.1l91.5,-31.3l.5,-67.9l-91,-32.7Z" class="g2_1" />
<path d="M745.8,650.8c-.1,11.2,9,20.4,20.2,20.5c11.3,.1,20.5,-9,20.6,-20.2c.1,-11.3,-9,-20.5,-20.3,-20.6c-11.2,-.1,-20.4,9,-20.5,20.3Z" class="g2_1" />
<path d="M758.6,655.6l-72,-.5l.1,-9.6l71.9,.6Z" class="g2_1" />
<path d="M297.7,649.8q0,-.1,.1,-.2c-.7,-1.7,.3,-4.1,2.7,-4.1c14.9,.1,21.9,9,34,16.2c2.5,1.6,5.9,8.2,3.4,8.6c-.1,.1,-.1,.2,-.1,.4c-.2,.4,0,1.2,.1,1.5c.2,.6,.3,1.2,.3,1.8c0,.1,.1,.2,.2,.3c.9,1.9,2.1,3.6,3.6,5c2.8,2.6,-1.4,6.3,-4.1,4c-2.6,-2.1,-5.7,-3.5,-8.9,-4c-1.4,-.2,-2.3,-1.3,-2.5,-2.4c-.3,-.2,-.6,-.4,-.8,-.8c-6.9,-10.2,-33.6,-8.3,-28,-26.3Z" class="g3_1" />
<path d="M348.7,688.6c1.6,1.3,3.1,2.6,4.7,4c-1.5,-1.2,-3,-2.5,-4.5,-3.7v-.1q-.1,0,-.1,0q0,-.1,-.1,-.2m21.8,36.1c2,1.6,3.9,3.3,5.8,4.9c0,0,-.1,0,-.1,0c-1.9,-1.6,-3.8,-3.2,-5.7,-4.9M330.2,682.5c.8,.2,1.4,.5,2.1,.9c0,.1,0,.2,.1,.2c1.6,2.3,3.3,4.5,5,6.7c.2,.3,.3,.6,.4,.8c1,1.7,1.8,3.5,2.7,5.3c0,.4,.1,.8,.4,1.2c.2,.3,.3,.5,.5,.8c.7,1.4,1.3,2.7,1.9,4.1c1.6,3.5,3.4,7,5.4,10.4c-.4,.9,-.3,2.1,.4,2.9c.9,1,1.7,1.8,2.6,2.7c0,.6,.3,1.1,.8,1.7c.7,.8,1.4,1.5,2.2,2.3c1.8,2.8,3.8,5.5,5.7,8.2c6.7,9,14.5,15.9,24.8,20.7c3.8,1.7,7.7,3.2,11.6,4.7c3.1,1.6,6.2,3.3,9.2,5c1.2,.7,2.3,.4,3.2,-.2c1.2,.4,2.5,.9,3.8,1.3c0,0,.1,.1,.2,.1c5.4,2.1,11.1,3.5,17,4.4c8.3,1.4,16.7,1.8,25.1,.7c4.2,-.4,8.4,-.8,12.5,-1.4c18.3,-2.7,36.1,-7.8,53.2,-14.7c.3,-.1,.5,-.3,.6,-.5q.1,0,.2,-.1c.2,.2,.6,.3,1,.2c2.6,-.7,5.1,-1.6,7.5,-2.8c7.2,-2.5,14.1,-5.6,19.9,-10.2c.5,-.5,.6,-1,.4,-1.4c4.6,-2.7,9,-5.5,13.2,-8.7c5.6,-3.3,10.4,-7.9,14.6,-13.2c2.6,-3,5.1,-6.2,7.4,-9.6c6.3,-9.7,11.3,-20.1,17.4,-29.8c2,-3.1,4.5,-6.7,4.7,-10.5c.3,-4.5,-6.2,-7.2,-8.9,-9.7c-1.3,-1.2,-3.4,.7,-2,2c0,.1,.1,.1,.2,.2c-.2,.2,-.4,.4,-.5,.7c-6.1,15.9,-18.6,28.5,-32,38.4c-4.1,3.1,-8.4,5.9,-12.8,8.7c-3.1,1.4,-6.1,3.2,-8.9,5.2c-7.7,4.2,-15.7,7.9,-23.9,11.1c-14.9,5.8,-31,10,-47.3,12c-2.5,.2,-5,.4,-7.6,.8c-24.1,1.8,-48.5,-1.6,-70.1,-12.9c-5.8,-3.1,-11.5,-6.6,-16.8,-10.6c-1.4,-1.3,-2.9,-2.4,-4.4,-3.5c-.9,-.7,-1.7,-1.5,-2.6,-2.3c-4.2,-3.9,-8.2,-8,-12.4,-11.9c-4.9,-4.5,-10,-9.3,-15.8,-12.6c-3.4,-1.9,-8.2,-4.3,-12,-1.8c-.7,.4,-.8,1.2,-.5,1.8c-.6,.8,-.5,2,.6,2.2Z" class="g4_1" />
<path d="M351.3,689.1c6,4,10.8,9.7,16.2,14.4c5.9,5.1,12.1,9.8,19,13.5c1,.6,2.1,1.2,3.2,1.7c2.8,1.8,6.6,4.6,8.9,5.4c4.2,2.2,7.9,2.6,12.4,4.1c6.5,2.5,13.2,4.3,20,5.3c2.4,.3,11.6,2.1,17.9,1.4c6.1,.6,12.4,.2,18.5,-.2c10.1,-.6,19.8,-2.6,29.7,-4.7c5.8,-1.3,11.9,-2.6,17.2,-5.4c8.7,-2.4,17.2,-5.4,25.3,-9.3c17.5,-8.4,33.2,-19.9,45.2,-35.3c3.8,-4.9,7.6,-10,10.7,-15.4c1.8,-3,5.1,-8,3.9,-11.8c-.1,-.9,-.6,-1.5,-1.3,-1.9c-.3,-.3,-.6,-.4,-1,-.5c0,-.5,-.2,-1,-.4,-1.4c.1,-2.4,-2.6,-4.6,-4.7,-2.5c-8.6,8.8,-18.7,15.8,-29.4,21.8c-.2,0,-.4,0,-.6,.1c-6.2,1.2,-11.3,4.5,-16.2,8.3c-.3,.3,-.6,.5,-.7,.8c-11.1,5.4,-22.4,10.5,-33.8,15c-2.6,1,-5.1,1.9,-7.7,2.8c-.5,-.1,-1,-.1,-1.6,0c-14,3.3,-28.1,6.7,-42.4,8.4c-14.4,1.7,-28.9,.7,-43.3,-.7c-14.5,-1.5,-28.6,-4.4,-41.8,-10.7c-3,-1.4,-6,-2.8,-9.1,-4.4c-1.5,-1.9,-4,-3.4,-5.7,-4.6c-2.2,-1.5,-4.5,-3,-6.8,-4.4c-3.5,-3.3,-7,-6.5,-11.2,-8.7c-.3,-.3,-.5,-.7,-.8,-1c-.4,-.6,-.9,-.9,-1.5,-1.1c-.8,-2.1,-4.5,-2.6,-5.5,.2c-3.8,10.1,10.9,16.6,17.4,20.8Z" class="g5_1" />
<path d="M565.7,696.7c8.3,-4.9,15.5,-12.3,20,-20.7c.5,-1,2,-.1,1.5,.9c-4.7,8.7,-12.2,16.3,-20.7,21.3c-.9,.5,-1.8,-1,-.8,-1.5Z" class="g1_1" />
<path d="M557.6,701.9c.6,-.8,1.6,-1.1,2.4,-1.7c.9,-.7,2.1,.5,1.2,1.2c-.4,.4,-.8,.6,-1.3,.9c-.3,.1,-.6,.3,-.8,.5c-.7,.9,-2.1,0,-1.5,-.9Z" class="g1_1" />
<path d="M552.1,705c.1,0,.2,0,.3,0c0,-.3,.2,-.6,.6,-.7c.1,0,.2,0,.3,0c0,-.3,.2,-.6,.6,-.7c1.1,-.3,1.5,1.4,.4,1.7c-.1,0,-.2,0,-.2,0c-.1,.3,-.3,.6,-.7,.7c-.1,0,-.2,0,-.2,0v.1c-.1,0,-.1,.1,-.1,.2l-.1,.1c0,0,0,.1,-.1,.1c0,0,0,.1,-.1,.1c0,0,-.1,.1,-.3,.1c-1.1,.3,-1.4,-1.4,-.4,-1.7Z" class="g1_1" />
<path d="M548.3,707.6c0,-.2,0,-.3,0,-.3c.1,-.2,.3,-.4,.6,-.5c1.1,-.2,1.5,1.5,.4,1.7c-.3,.1,-.5,0,-.7,-.1c-.1,-.1,-.2,-.1,-.2,-.2c-.1,-.2,-.2,-.4,-.1,-.6Z" class="g1_1" />
<path d="M370.1,705.5c6.3,2.6,11.7,6.7,17.1,10.8c6.1,4.8,12.2,8.5,19.6,10.9c14.2,4.5,27.9,9,42.9,9.7c29.1,1.4,58.5,-8.1,84.2,-21.3c1,-.5,1.8,1,.8,1.5c-25.8,13.3,-54.7,22.3,-83.9,21.6c-6.8,-.2,-13.6,-1.1,-20.3,-2.6c-7.5,-1.6,-14.6,-4.5,-22,-6.6c-6.7,-2,-12.5,-4.6,-18.2,-8.7C383.5,716,377.4,710.3,369.6,707.2c-1.1,-.4,-.6,-2.1,.5,-1.7Z" class="g1_1" />
<path d="M364.5,701.5c1.1,-.3,1.5,1.4,.4,1.6c-1.1,.3,-1.5,-1.4,-.4,-1.6Z" class="g1_1" />
<path d="M541.9,550.9c-1.1,5.2,-6.3,8.5,-11.5,7.4c-5.2,-1.1,-8.5,-6.3,-7.3,-11.5c1.1,-5.2,6.2,-8.5,11.4,-7.3c5.2,1.1,8.5,6.2,7.4,11.4m-14.8,22.8c-13.7,-3,-22.4,-16.5,-19.4,-30.2c3,-13.7,16.5,-22.4,30.2,-19.4c13.7,3,22.4,16.5,19.4,30.2c-3,13.7,-16.5,22.4,-30.2,19.4m58,-21.6l-6.5,-1.4c.2,-6.8,-1.1,-13.5,-3.8,-19.7l5.5,-3.6c.6,-.3,1,-.9,1.1,-1.5c.1,-.6,0,-1.3,-.3,-1.8l-6.2,-9.6c-.7,-1.1,-2.2,-1.5,-3.3,-.8l-5.7,3.7c-4.5,-4.8,-10,-8.6,-16.1,-11.1l1.5,-6.6c.3,-1.3,-.6,-2.6,-1.9,-2.9l-11.1,-2.4c-1.3,-.3,-2.6,.5,-2.9,1.8l-1.5,6.6c-6.6,-.2,-13.2,.9,-19.3,3.4L511,500.7c-.7,-1.1,-2.2,-1.4,-3.3,-.7l-9.7,6.2c-.5,.3,-.9,.8,-1,1.5c-.1,.6,0,1.2,.3,1.8l3.5,5.4c-5,4.5,-8.9,10,-11.5,16.2l-6,-1.3c-1.3,-.3,-2.5,.5,-2.8,1.8L478,542.8c-.3,1.3,.6,2.6,1.9,2.9l5.7,1.2c-.3,6.8,.8,13.5,3.3,19.8l-5,3.3c-1.2,.7,-1.5,2.2,-.8,3.3l6.2,9.6c.3,.6,.9,.9,1.5,1.1c.6,.1,1.3,0,1.8,-.4l5,-3.1c4.6,5.1,10.3,9.2,16.7,11.8l-1.2,5.7c-.3,1.3,.6,2.5,1.8,2.8l11.2,2.5c1.3,.3,2.6,-.6,2.9,-1.9l1.2,-5.6c6.9,.3,13.7,-1,20.1,-3.7l3.2,5.1c.7,1.1,2.3,1.4,3.4,.7l9.6,-6.2c1.1,-.7,1.4,-2.2,.7,-3.3l-3.3,-5.2c5,-4.6,8.9,-10.3,11.4,-16.6l6.3,1.4c1.3,.3,2.6,-.6,2.9,-1.9L586.9,555c.3,-1.3,-.5,-2.6,-1.8,-2.9Z" class="g6_1" />
<path d="M383.3,552.2c-1.1,5.2,-6.2,8.5,-11.4,7.4c-5.2,-1.2,-8.5,-6.3,-7.4,-11.5c1.2,-5.2,6.3,-8.5,11.5,-7.3c5.2,1.1,8.5,6.2,7.3,11.4M368.5,575c-13.7,-3,-22.4,-16.5,-19.4,-30.2c3,-13.7,16.6,-22.4,30.3,-19.4c13.7,3,22.3,16.5,19.3,30.2c-3,13.7,-16.5,22.4,-30.2,19.4m58,-21.6L420,551.9c.2,-6.7,-1.1,-13.4,-3.7,-19.6l5.5,-3.6c.5,-.3,.9,-.9,1,-1.5c.2,-.6,.1,-1.3,-.3,-1.8l-6.2,-9.6c-.7,-1.2,-2.2,-1.5,-3.3,-.8l-5.7,3.7c-4.5,-4.8,-10,-8.6,-16,-11.1l1.4,-6.6c.3,-1.3,-.5,-2.6,-1.8,-2.9l-11.2,-2.4c-1.3,-.3,-2.6,.5,-2.9,1.8l-1.4,6.6c-6.6,-.2,-13.3,.9,-19.4,3.4L352.5,502c-.8,-1.1,-2.3,-1.4,-3.4,-.7l-9.6,6.1c-.6,.4,-.9,.9,-1.1,1.6c-.1,.6,0,1.2,.4,1.8l3.4,5.4c-4.9,4.5,-8.9,10,-11.5,16.2l-5.9,-1.3c-1.3,-.3,-2.6,.5,-2.9,1.8l-2.4,11.2c-.3,1.3,.5,2.6,1.8,2.9l5.7,1.2c-.3,6.8,.8,13.5,3.4,19.8l-5.1,3.3c-1.1,.7,-1.4,2.1,-.7,3.3l6.2,9.6c.3,.5,.8,.9,1.5,1.1c.6,.1,1.2,0,1.8,-.4l4.9,-3.1c4.6,5.1,10.4,9.2,16.8,11.8l-1.2,5.7c-.3,1.3,.5,2.5,1.8,2.8l11.2,2.5c1.3,.3,2.5,-.6,2.8,-1.9l1.3,-5.6c6.8,.3,13.7,-1,20,-3.7l3.3,5.1c.7,1.1,2.2,1.4,3.3,.7l9.6,-6.2c1.2,-.7,1.5,-2.2,.8,-3.3l-3.4,-5.2c5,-4.6,8.9,-10.3,11.4,-16.6l6.4,1.4c1.3,.2,2.6,-.6,2.8,-1.9l2.5,-11.2c.3,-1.3,-.5,-2.5,-1.9,-2.8Z" class="g6_1" />

</svg>
